Math Olympiad Ranks – Kevin Valdivia
…
indiv_country

# A tibble: 3,781 × 4
# Groups:   country, year [3,781]
    year country    individual_rank award       
   <dbl> <chr>                <dbl> <chr>       
 1  2024 Albania                252 Bronze medal
 2  2024 Algeria                 47 Gold medal  
 3  2024 Argentina               82 Silver medal
 4  2024 Armenia                182 Bronze medal
 5  2024 Australia               29 Gold medal  
 6  2024 Austria                 90 Silver medal
 7  2024 Azerbaijan             252 Bronze medal
 8  2024 Bangladesh             216 Bronze medal
 9  2024 Belarus                 11 Gold medal  
10  2024 Belgium                147 Silver medal
# ℹ 3,771 more rows
…
