Monster Movies – Kevin Valdivia
…
movie_mod_lm <- linear_reg() |>
  set_engine(engine = "lm") |>
  set_mode(mode = "regression")

movie_wflow_lm <- workflow() |> 
  add_model(movie_mod_lm) |> 
  add_recipe(movie_rec)

movie_wflow_lm |> 
  fit(data = monster_model) |> 
  tidy()

# A tibble: 26 × 5
   term               estimate  std.error statistic       p.value
   <chr>                 <dbl>      <dbl>     <dbl>         <dbl>
 1 (Intercept)     18.1        6.17           2.94  0.00343      
 2 year            -0.00617    0.00308       -2.00  0.0459       
 3 runtime_minutes  0.00163    0.00261        0.625 0.532        
 4 num_votes        0.00000301 0.00000120     2.51  0.0125       
 5 Comedy           0.235      0.145          1.62  0.105        
 6 Horror          -0.847      0.145         -5.84  0.00000000899
 7 Mystery          0.250      0.266          0.942 0.347        
 8 Crime           -0.274      0.256         -1.07  0.284        
 9 Drama            0.0309     0.176          0.176 0.861        
10 Romance          0.130      0.444          0.294 0.769        
# ℹ 16 more rows
…
