Kevin Valdivia - The Office - Mini Text Analysis Project
…
  group_by(Season, Episode_Number) |> 
  summarize(Jim = sum(Jim),
            Pam = sum(Pam),
            Michael = sum(Michael),
            Dwight = sum(Dwight)) |> 
  ungroup() |> 
  mutate(season_episode_num = row_number()) |> 
  mutate(season_episode = ifelse(Episode_Number == 1, Season, "")) |> 
  select(Jim:season_episode) |> 
  pivot_longer(cols = Jim:Dwight,
               names_to = "character",
               values_to = "count")
main_4_mentions

# A tibble: 736 × 4
   season_episode_num season_episode character count
                <int> <chr>          <chr>     <dbl>
 1                  1 "1"            Jim           7
 2                  1 "1"            Pam          17
 3                  1 "1"            Michael       7
 4                  1 "1"            Dwight        8
 5                  2 ""             Jim           6
 6                  2 ""             Pam           4
 7                  2 ""             Michael      15
 8                  2 ""             Dwight       10
 9                  3 ""             Jim          17
10                  3 ""             Pam          10
# ℹ 726 more rows
…
